; generated by Slic3r Prusa Edition 1.38.6-prusa3d-win64 on 2018-02-25 at 20:40:20

; 

; external perimeters extrusion width = 0.45mm
; perimeters extrusion width = 0.45mm
; infill extrusion width = 0.45mm
; solid infill extrusion width = 0.45mm
; top infill extrusion width = 0.45mm
; first layer extrusion width = 0.42mm

M107
M115 U3.1.0 ; tell printer latest fw version
M83  ; extruder relative mode
M104 S215 ; set extruder temp
M140 S60 ; set bed temp
M190 S60 ; wait for bed temp
M109 S215 ; wait for extruder temp
G28 W ; home all without mesh bed level
G80 ; mesh bed leveling
G1 Y-3.0 F1000.0 ; go outside print area
G92 E0.0
G1 X60.0 E9.0  F1000.0 ; intro line
G1 X100.0 E12.5  F1000.0 ; intro line
G92 E0.0
M900 K30; Filament gcode
G21 ; set units to millimeters
G90 ; use absolute coordinates
M83 ; use relative distances for extrusion
;BEFORE_LAYER_CHANGE
;0.2


G1 E-0.80000 F2100.00000
G1 Z0.600 F7200.000
;AFTER_LAYER_CHANGE
;0.2
G1 X104.408 Y87.727 F7200.000
G1 Z0.200 F7200.000
G1 E0.80000 F2100.00000
M204 S1000
G1 F1800
G1 X105.994 Y85.996 E0.07364
G1 X107.729 Y84.407 E0.07376
G1 X109.665 Y82.929 E0.07638
G1 X111.652 Y81.674 E0.07369
G1 X113.640 Y80.641 E0.07024
G1 X115.711 Y79.781 E0.07029
G1 X118.039 Y79.040 E0.07662
G1 X120.328 Y78.532 E0.07352
G1 X122.657 Y78.225 E0.07364
G1 X125.003 Y78.123 E0.07364
G1 X127.349 Y78.226 E0.07364
G1 X129.763 Y78.550 E0.07638
G1 X132.056 Y79.068 E0.07369
G1 X134.192 Y79.744 E0.07024
G1 X136.264 Y80.599 E0.07029
G1 X138.431 Y81.720 E0.07650
G1 X140.412 Y82.981 E0.07364
G1 X142.276 Y84.410 E0.07364
G1 X144.004 Y85.994 E0.07352
G1 X145.588 Y87.723 E0.07352
G1 X147.018 Y89.586 E0.07364
G1 X148.280 Y91.567 E0.07364
G1 X149.401 Y93.736 E0.07655
G1 X150.256 Y95.807 E0.07024
G1 X150.932 Y97.944 E0.07029
G1 X151.449 Y100.235 E0.07363
G1 X151.774 Y102.653 E0.07650
G1 X151.877 Y104.999 E0.07364
G1 X151.775 Y107.342 E0.07352
G1 X151.468 Y109.670 E0.07364
G1 X150.960 Y111.963 E0.07364
G1 X150.219 Y114.289 E0.07655
G1 X149.359 Y116.358 E0.07024
G1 X148.326 Y118.348 E0.07029
G1 X147.072 Y120.333 E0.07363
G1 X145.592 Y122.273 E0.07650
G1 X144.006 Y124.004 E0.07364
G1 X142.277 Y125.588 E0.07352
G1 X140.411 Y127.020 E0.07376
G1 X138.433 Y128.280 E0.07352
G1 X136.264 Y129.401 E0.07655
G1 X134.193 Y130.256 E0.07024
G1 X132.056 Y130.932 E0.07029
G1 X129.765 Y131.449 E0.07363
G1 X127.347 Y131.774 E0.07650
G1 X125.001 Y131.877 E0.07364
G1 X122.658 Y131.775 E0.07352
G1 X120.330 Y131.468 E0.07364
G1 X118.037 Y130.960 E0.07364
G1 X115.711 Y130.219 E0.07655
G1 X113.642 Y129.359 E0.07024
G1 X111.652 Y128.326 E0.07029
G1 X109.667 Y127.072 E0.07363
G1 X107.727 Y125.592 E0.07650
G1 X105.996 Y124.006 E0.07364
G1 X104.412 Y122.277 E0.07352
G1 X102.980 Y120.411 E0.07376
G1 X101.720 Y118.433 E0.07352
G1 X100.599 Y116.264 E0.07655
G1 X99.744 Y114.193 E0.07024
G1 X99.068 Y112.056 E0.07029
G1 X98.551 Y109.765 E0.07363
G1 X98.226 Y107.347 E0.07650
G1 X98.123 Y105.001 E0.07364
G1 X98.225 Y102.658 E0.07352
G1 X98.532 Y100.330 E0.07364
G1 X99.040 Y98.037 E0.07364
G1 X99.781 Y95.711 E0.07655
G1 X100.641 Y93.642 E0.07024
G1 X101.674 Y91.652 E0.07029
G1 X102.928 Y89.667 E0.07363
G1 X104.372 Y87.775 E0.07462
G1 F5760
G1 X105.850 Y86.154 E-0.76000
G1 E-0.04000 F2100.00000
G1 Z0.800 F7200.000
G1 X106.971 Y89.872 F7200.000
G1 Z0.200 F7200.000
G1 E0.80000 F2100.00000
G1 F1800
G1 X108.358 Y88.358 E0.06438
G1 X109.872 Y86.971 E0.06438
G1 X111.501 Y85.721 E0.06438
G1 X113.233 Y84.618 E0.06438
G1 X113.827 Y84.309 E0.02102
G1 X115.054 Y83.670 E0.04336
G1 X116.951 Y82.884 E0.06438
G1 X118.909 Y82.267 E0.06438
G1 X120.913 Y81.823 E0.06438
G1 X122.949 Y81.555 E0.06438
G1 X125.000 Y81.465 E0.06438
G1 X127.051 Y81.555 E0.06438
G1 X129.087 Y81.823 E0.06438
G1 X131.091 Y82.267 E0.06438
G1 X133.049 Y82.884 E0.06438
G1 X134.946 Y83.670 E0.06438
G1 X136.767 Y84.618 E0.06438
G1 X138.499 Y85.721 E0.06438
G1 X140.128 Y86.971 E0.06438
G1 X141.642 Y88.358 E0.06438
G1 X143.029 Y89.872 E0.06438
G1 X144.279 Y91.501 E0.06438
G1 X145.382 Y93.233 E0.06438
G1 X146.330 Y95.054 E0.06438
G1 X147.116 Y96.951 E0.06438
G1 X147.733 Y98.909 E0.06438
G1 X148.177 Y100.913 E0.06438
G1 X148.445 Y102.949 E0.06438
G1 X148.535 Y105.000 E0.06438
G1 X148.445 Y107.051 E0.06438
G1 X148.177 Y109.087 E0.06438
G1 X147.733 Y111.091 E0.06438
G1 X147.116 Y113.049 E0.06438
G1 X146.330 Y114.946 E0.06438
G1 X145.382 Y116.767 E0.06438
G1 X144.279 Y118.499 E0.06438
G1 X143.029 Y120.128 E0.06438
G1 X141.642 Y121.642 E0.06438
G1 X140.128 Y123.029 E0.06438
G1 X138.499 Y124.279 E0.06438
G1 X136.767 Y125.382 E0.06438
G1 X134.946 Y126.330 E0.06438
G1 X133.049 Y127.116 E0.06438
G1 X131.091 Y127.733 E0.06438
G1 X129.087 Y128.177 E0.06438
G1 X127.051 Y128.445 E0.06438
G1 X125.000 Y128.535 E0.06438
G1 X122.949 Y128.445 E0.06438
G1 X120.913 Y128.177 E0.06438
G1 X118.909 Y127.733 E0.06438
G1 X116.951 Y127.116 E0.06438
G1 X115.054 Y126.330 E0.06438
G1 X114.459 Y126.020 E0.02102
G1 X113.233 Y125.382 E0.04336
G1 X111.501 Y124.279 E0.06438
G1 X109.872 Y123.029 E0.06438
G1 X108.358 Y121.642 E0.06438
G1 X106.971 Y120.128 E0.06438
G1 X105.721 Y118.499 E0.06438
G1 X104.618 Y116.767 E0.06438
G1 X103.670 Y114.946 E0.06438
G1 X102.884 Y113.049 E0.06438
G1 X102.267 Y111.091 E0.06438
G1 X101.823 Y109.087 E0.06438
G1 X101.555 Y107.051 E0.06438
G1 X101.465 Y105.000 E0.06438
G1 X101.555 Y102.949 E0.06438
G1 X101.823 Y100.913 E0.06438
G1 X102.267 Y98.909 E0.06438
G1 X102.884 Y96.951 E0.06438
G1 X103.670 Y95.054 E0.06438
G1 X104.618 Y93.233 E0.06438
G1 X105.721 Y91.501 E0.06438
G1 X106.935 Y89.920 E0.06249
G1 X106.636 Y89.690 F7200.000
G1 F1800
G1 X108.091 Y88.091 E0.06780
G1 X109.629 Y86.682 E0.06541
G1 X111.284 Y85.412 E0.06541
G1 X113.044 Y84.291 E0.06541
G1 X114.894 Y83.328 E0.06541
G1 X116.821 Y82.530 E0.06541
G1 X118.811 Y81.902 E0.06541
G1 X120.848 Y81.451 E0.06541
G1 X122.916 Y81.179 E0.06541
G1 X125.000 Y81.088 E0.06541
G1 X127.084 Y81.179 E0.06541
G1 X129.152 Y81.451 E0.06541
G1 X131.189 Y81.902 E0.06541
G1 X133.179 Y82.530 E0.06541
G1 X135.106 Y83.328 E0.06541
G1 X136.956 Y84.291 E0.06541
G1 X138.716 Y85.412 E0.06541
G1 X140.371 Y86.682 E0.06541
G1 X141.909 Y88.091 E0.06541
G1 X143.318 Y89.629 E0.06541
G1 X144.588 Y91.284 E0.06541
G1 X145.709 Y93.044 E0.06541
G1 X146.672 Y94.894 E0.06541
G1 X147.470 Y96.821 E0.06541
G1 X148.098 Y98.811 E0.06541
G1 X148.549 Y100.848 E0.06541
G1 X148.821 Y102.916 E0.06541
G1 X148.912 Y105.000 E0.06541
G1 X148.821 Y107.084 E0.06541
G1 X148.549 Y109.152 E0.06541
G1 X148.098 Y111.189 E0.06541
G1 X147.470 Y113.179 E0.06541
G1 X146.672 Y115.106 E0.06541
G1 X145.709 Y116.956 E0.06541
G1 X144.588 Y118.716 E0.06541
G1 X143.318 Y120.371 E0.06541
G1 X141.909 Y121.909 E0.06541
G1 X140.371 Y123.318 E0.06541
G1 X138.716 Y124.588 E0.06541
G1 X136.956 Y125.709 E0.06541
G1 X135.106 Y126.672 E0.06541
G1 X133.179 Y127.470 E0.06541
G1 X131.189 Y128.098 E0.06541
G1 X129.152 Y128.549 E0.06541
G1 X127.084 Y128.821 E0.06541
G1 X125.000 Y128.912 E0.06541
G1 X122.916 Y128.821 E0.06541
G1 X120.848 Y128.549 E0.06541
G1 X118.811 Y128.098 E0.06541
G1 X116.821 Y127.470 E0.06541
G1 X114.894 Y126.672 E0.06541
G1 X114.285 Y126.355 E0.02153
G1 X113.044 Y125.709 E0.04387
G1 X111.284 Y124.588 E0.06541
G1 X109.629 Y123.318 E0.06541
G1 X108.091 Y121.909 E0.06541
G1 X106.682 Y120.371 E0.06541
G1 X105.412 Y118.716 E0.06541
G1 X104.291 Y116.956 E0.06541
G1 X103.328 Y115.106 E0.06541
G1 X102.530 Y113.179 E0.06541
G1 X101.902 Y111.189 E0.06541
G1 X101.451 Y109.152 E0.06541
G1 X101.179 Y107.084 E0.06541
G1 X101.088 Y105.000 E0.06541
G1 X101.179 Y102.916 E0.06541
G1 X101.451 Y100.848 E0.06541
G1 X101.902 Y98.811 E0.06541
G1 X102.530 Y96.821 E0.06541
G1 X103.328 Y94.894 E0.06541
G1 X104.291 Y93.044 E0.06541
G1 X105.412 Y91.284 E0.06541
G1 X106.599 Y89.738 E0.06113
G1 X106.300 Y89.508 F7200.000
G1 F1800
G1 X107.825 Y87.825 E0.07122
G1 X109.387 Y86.393 E0.06644
G1 X111.068 Y85.103 E0.06644
G1 X112.855 Y83.964 E0.06644
G1 X114.735 Y82.986 E0.06644
G1 X116.692 Y82.175 E0.06644
G1 X118.713 Y81.538 E0.06644
G1 X120.782 Y81.079 E0.06644
G1 X122.883 Y80.803 E0.06644
G1 X125.000 Y80.710 E0.06644
G1 X127.117 Y80.803 E0.06644
G1 X129.218 Y81.079 E0.06644
G1 X131.287 Y81.538 E0.06644
G1 X133.308 Y82.175 E0.06644
G1 X135.265 Y82.986 E0.06644
G1 X137.145 Y83.964 E0.06644
G1 X138.932 Y85.103 E0.06644
G1 X140.613 Y86.393 E0.06644
G1 X142.175 Y87.825 E0.06644
G1 X143.607 Y89.387 E0.06644
G1 X144.897 Y91.068 E0.06644
G1 X146.036 Y92.855 E0.06644
G1 X147.014 Y94.735 E0.06644
G1 X147.825 Y96.692 E0.06644
G1 X148.462 Y98.713 E0.06644
G1 X148.921 Y100.782 E0.06644
G1 X149.197 Y102.883 E0.06644
G1 X149.290 Y105.000 E0.06644
G1 X149.197 Y107.117 E0.06644
G1 X148.921 Y109.218 E0.06644
G1 X148.462 Y111.287 E0.06644
G1 X147.825 Y113.308 E0.06644
G1 X147.014 Y115.265 E0.06644
G1 X146.036 Y117.145 E0.06644
G1 X144.897 Y118.932 E0.06644
G1 X143.607 Y120.613 E0.06644
G1 X142.175 Y122.175 E0.06644
G1 X140.613 Y123.607 E0.06644
G1 X138.932 Y124.897 E0.06644
G1 X137.145 Y126.036 E0.06644
G1 X135.265 Y127.014 E0.06644
G1 X133.308 Y127.825 E0.06644
G1 X131.287 Y128.462 E0.06644
G1 X129.218 Y128.921 E0.06644
G1 X127.117 Y129.197 E0.06644
G1 X125.000 Y129.290 E0.06644
G1 X122.883 Y129.197 E0.06644
G1 X120.782 Y128.921 E0.06644
G1 X118.713 Y128.462 E0.06644
G1 X116.692 Y127.825 E0.06644
G1 X114.735 Y127.014 E0.06644
G1 X114.111 Y126.689 E0.02205
G1 X112.855 Y126.036 E0.04439
G1 X111.068 Y124.897 E0.06644
G1 X109.387 Y123.607 E0.06644
G1 X107.825 Y122.175 E0.06644
G1 X106.393 Y120.613 E0.06644
G1 X105.103 Y118.932 E0.06644
G1 X103.964 Y117.145 E0.06644
G1 X102.986 Y115.265 E0.06644
G1 X102.175 Y113.308 E0.06644
G1 X101.538 Y111.287 E0.06644
G1 X101.079 Y109.218 E0.06644
G1 X100.803 Y107.117 E0.06644
G1 X100.710 Y105.000 E0.06644
G1 X100.803 Y102.883 E0.06644
G1 X101.079 Y100.782 E0.06644
G1 X101.538 Y98.713 E0.06644
G1 X102.175 Y96.692 E0.06644
G1 X102.986 Y94.735 E0.06644
G1 X103.964 Y92.855 E0.06644
G1 X105.103 Y91.068 E0.06644
G1 X106.263 Y89.556 E0.05976
G1 X106.694 Y89.576 F7200.000
G1 F5760
G1 X107.733 Y87.926 E-0.76000
G1 E-0.04000 F2100.00000
G1 Z0.800 F7200.000
G1 X103.939 Y115.217 F7200.000
G1 Z0.200 F7200.000
G1 E0.80000 F2100.00000
G1 F1800
G1 X114.783 Y126.061 E0.48212
G1 F5760
G1 X113.231 Y124.510 E-0.76000
G1 E-0.04000 F2100.00000
G1 Z0.800 F7200.000
G1 X115.753 Y126.497 F7200.000
G1 Z0.200 F7200.000
G1 E0.80000 F2100.00000
G1 F1800
G1 X103.816 Y114.560 E0.53071
G1 X103.438 Y113.647 E0.03106
G1 X116.353 Y126.562 E0.57416
G1 X117.047 Y126.850 E0.02364
G1 X117.234 Y126.908 E0.00615
G1 X103.092 Y112.766 E0.62875
G1 X102.845 Y111.985 E0.02574
G1 X118.015 Y127.155 E0.67441
G1 X118.796 Y127.401 E0.02574
G1 X102.599 Y111.204 E0.72007
G1 X102.424 Y110.495 E0.02297
G1 X119.505 Y127.576 E0.75938
G1 X120.192 Y127.728 E0.02212
G1 X102.272 Y109.808 E0.79669
G1 X102.120 Y109.121 E0.02212
G1 X120.879 Y127.880 E0.83400
G1 X121.503 Y127.970 E0.01983
G1 X102.030 Y108.497 E0.86575
G1 X101.949 Y107.881 E0.01952
G1 X122.119 Y128.051 E0.89673
G1 X122.735 Y128.132 E0.01952
G1 X101.868 Y107.265 E0.92771
G1 X101.822 Y106.684 E0.01832
G1 X123.316 Y128.178 E0.95560
G1 X123.875 Y128.203 E0.01759
G1 X101.797 Y106.125 E0.98154
G1 X101.773 Y105.566 E0.01759
G1 X124.434 Y128.227 E1.00749
G1 X124.993 Y128.252 E0.01759
G1 X101.748 Y105.007 E1.03343
G1 X101.770 Y104.494 E0.01614
G1 X125.506 Y128.230 E1.05526
G1 X126.018 Y128.207 E0.01612
G1 X101.793 Y103.982 E1.07704
G1 X101.815 Y103.469 E0.01612
G1 X126.531 Y128.185 E1.09882
G1 X127.042 Y128.161 E0.01608
G1 X101.839 Y102.958 E1.12049
G1 X101.901 Y102.486 E0.01498
G1 X127.514 Y128.099 E1.13873
G1 X127.987 Y128.037 E0.01498
G1 X101.963 Y102.013 E1.15697
G1 X102.025 Y101.541 E0.01498
G1 X128.459 Y127.975 E1.17521
G1 X128.932 Y127.913 E0.01498
G1 X102.087 Y101.068 E1.19345
G1 X102.177 Y100.623 E0.01428
G1 X129.377 Y127.823 E1.20929
G1 X129.815 Y127.726 E0.01409
G1 X102.274 Y100.185 E1.22443
G1 X102.371 Y99.748 E0.01409
G1 X130.252 Y127.629 E1.23958
G1 X130.690 Y127.532 E0.01409
G1 X102.468 Y99.310 E1.25472
G1 X102.573 Y98.880 E0.01391
G1 X131.120 Y127.427 E1.26917
G1 X131.526 Y127.299 E0.01340
G1 X102.701 Y98.474 E1.28155
G1 X102.829 Y98.067 E0.01340
G1 X131.933 Y127.171 E1.29392
G1 X132.339 Y127.043 E0.01340
G1 X102.957 Y97.661 E1.30629
G1 X103.085 Y97.254 E0.01340
G1 X132.746 Y126.915 E1.31867
G1 X133.138 Y126.773 E0.01312
G1 X103.227 Y96.862 E1.32980
G1 X103.384 Y96.484 E0.01286
G1 X133.516 Y126.616 E1.33965
G1 X133.895 Y126.459 E0.01286
G1 X103.541 Y96.105 E1.34949
G1 X103.697 Y95.727 E0.01286
G1 X134.273 Y126.303 E1.35934
G1 X134.651 Y126.146 E0.01286
G1 X103.854 Y95.349 E1.36919
G1 X104.025 Y94.985 E0.01264
G1 X135.015 Y125.975 E1.37777
G1 X135.366 Y125.792 E0.01246
G1 X104.208 Y94.634 E1.38527
G1 X104.391 Y94.282 E0.01246
G1 X135.718 Y125.609 E1.39276
G1 X136.070 Y125.426 E0.01246
G1 X104.574 Y93.930 E1.40026
G1 X104.757 Y93.579 E0.01246
G1 X136.421 Y125.243 E1.40775
G1 X136.762 Y125.050 E0.01233
G1 X104.950 Y93.238 E1.41432
G1 X105.158 Y92.911 E0.01217
G1 X137.089 Y124.842 E1.41959
G1 X137.416 Y124.634 E0.01217
G1 X105.366 Y92.584 E1.42486
G1 X105.574 Y92.258 E0.01217
G1 X137.742 Y124.426 E1.43013
G1 X138.069 Y124.218 E0.01217
G1 X105.782 Y91.931 E1.43540
G1 X105.995 Y91.609 E0.01213
G1 X138.391 Y124.005 E1.44029
G1 X138.694 Y123.773 E0.01199
G1 X106.227 Y91.306 E1.44341
G1 X106.459 Y91.004 E0.01199
G1 X138.996 Y123.541 E1.44654
G1 X139.299 Y123.309 E0.01199
G1 X106.691 Y90.701 E1.44967
G1 X106.923 Y90.399 E0.01199
G1 X139.601 Y123.077 E1.45280
G1 X139.904 Y122.844 E0.01199
G1 X107.156 Y90.096 E1.45593
G1 X107.408 Y89.814 E0.01190
G1 X140.186 Y122.592 E1.45726
G1 X140.465 Y122.336 E0.01190
G1 X107.664 Y89.535 E1.45830
G1 X107.919 Y89.256 E0.01190
G1 X140.744 Y122.081 E1.45934
G1 X141.023 Y121.825 E0.01190
G1 X108.175 Y88.977 E1.46038
G1 X108.431 Y88.698 E0.01190
G1 X141.302 Y121.569 E1.46141
G1 X141.569 Y121.302 E0.01189
G1 X108.698 Y88.431 E1.46141
G1 X108.977 Y88.175 E0.01190
G1 X141.825 Y121.023 E1.46038
G1 X142.081 Y120.744 E0.01190
G1 X109.256 Y87.919 E1.45934
G1 X109.535 Y87.664 E0.01190
G1 X142.336 Y120.465 E1.45830
G1 X142.592 Y120.186 E0.01190
G1 X109.814 Y87.408 E1.45726
G1 X110.096 Y87.156 E0.01190
G1 X142.844 Y119.904 E1.45593
G1 X143.077 Y119.601 E0.01199
G1 X110.399 Y86.923 E1.45280
G1 X110.701 Y86.691 E0.01199
G1 X143.309 Y119.299 E1.44967
G1 X143.541 Y118.996 E0.01199
G1 X111.004 Y86.459 E1.44654
G1 X111.306 Y86.227 E0.01199
G1 X143.773 Y118.694 E1.44341
G1 X144.005 Y118.391 E0.01199
G1 X111.609 Y85.995 E1.44029
G1 X111.931 Y85.782 E0.01213
G1 X144.218 Y118.069 E1.43540
G1 X144.426 Y117.742 E0.01217
G1 X112.258 Y85.574 E1.43013
G1 X112.584 Y85.366 E0.01217
G1 X144.634 Y117.416 E1.42486
G1 X144.842 Y117.089 E0.01217
G1 X112.911 Y85.158 E1.41959
G1 X113.238 Y84.950 E0.01217
G1 X145.050 Y116.762 E1.41432
G1 X145.243 Y116.421 E0.01233
G1 X113.579 Y84.757 E1.40775
G1 X113.930 Y84.574 E0.01246
G1 X145.426 Y116.070 E1.40026
G1 X145.609 Y115.718 E0.01246
G1 X114.282 Y84.391 E1.39276
G1 X114.634 Y84.208 E0.01246
G1 X145.792 Y115.366 E1.38527
G1 X145.975 Y115.015 E0.01246
G1 X114.985 Y84.025 E1.37777
G1 X115.349 Y83.854 E0.01264
G1 X146.146 Y114.651 E1.36918
G1 X146.303 Y114.273 E0.01286
G1 X115.727 Y83.697 E1.35934
G1 X116.105 Y83.541 E0.01286
G1 X146.459 Y113.895 E1.34949
G1 X146.616 Y113.516 E0.01286
G1 X116.484 Y83.384 E1.33965
G1 X116.862 Y83.227 E0.01286
G1 X146.773 Y113.138 E1.32980
G1 X146.915 Y112.746 E0.01312
G1 X117.254 Y83.085 E1.31867
G1 X117.661 Y82.957 E0.01340
G1 X147.043 Y112.339 E1.30629
G1 X147.171 Y111.933 E0.01340
G1 X118.067 Y82.829 E1.29392
G1 X118.474 Y82.701 E0.01340
G1 X147.299 Y111.526 E1.28155
G1 X147.427 Y111.120 E0.01340
G1 X118.880 Y82.573 E1.26917
G1 X119.310 Y82.468 E0.01391
G1 X147.532 Y110.690 E1.25472
G1 X147.629 Y110.252 E0.01409
G1 X119.748 Y82.371 E1.23958
G1 X120.185 Y82.274 E0.01409
G1 X147.726 Y109.815 E1.22443
G1 X147.823 Y109.377 E0.01409
G1 X120.623 Y82.177 E1.20929
G1 X121.068 Y82.087 E0.01428
G1 X147.913 Y108.932 E1.19345
G1 X147.975 Y108.459 E0.01498
G1 X121.541 Y82.025 E1.17521
G1 X122.013 Y81.963 E0.01498
G1 X148.037 Y107.987 E1.15697
G1 X148.099 Y107.514 E0.01498
G1 X122.486 Y81.901 E1.13873
G1 X122.958 Y81.839 E0.01498
G1 X148.161 Y107.042 E1.12049
G1 X148.185 Y106.531 E0.01608
G1 X123.469 Y81.815 E1.09882
G1 X123.982 Y81.793 E0.01612
G1 X148.207 Y106.018 E1.07704
G1 X148.230 Y105.506 E0.01612
G1 X124.494 Y81.770 E1.05526
G1 X125.007 Y81.748 E0.01614
G1 X148.252 Y104.993 E1.03343
G1 X148.227 Y104.434 E0.01759
G1 X125.566 Y81.773 E1.00748
G1 X126.125 Y81.797 E0.01759
G1 X148.203 Y103.875 E0.98154
G1 X148.178 Y103.316 E0.01759
G1 X126.684 Y81.822 E0.95560
G1 X127.265 Y81.868 E0.01832
G1 X148.132 Y102.735 E0.92771
G1 X148.051 Y102.119 E0.01952
G1 X127.881 Y81.949 E0.89673
G1 X128.497 Y82.030 E0.01952
G1 X147.970 Y101.503 E0.86575
G1 X147.880 Y100.879 E0.01983
G1 X129.121 Y82.120 E0.83400
G1 X129.808 Y82.272 E0.02212
G1 X147.728 Y100.192 E0.79669
G1 X147.576 Y99.505 E0.02212
G1 X130.495 Y82.424 E0.75938
G1 X131.204 Y82.599 E0.02297
G1 X147.401 Y98.796 E0.72007
G1 X147.155 Y98.015 E0.02574
G1 X131.985 Y82.845 E0.67441
G1 X132.766 Y83.092 E0.02574
G1 X146.908 Y97.234 E0.62874
G1 X146.850 Y97.047 E0.00615
G1 X146.562 Y96.353 E0.02364
G1 X133.647 Y83.438 E0.57416
G1 X134.560 Y83.816 E0.03106
G1 X146.497 Y95.753 E0.53071
G1 F5760
G1 X144.946 Y94.202 E-0.76000
G1 E-0.04000 F2100.00000
G1 Z0.800 F7200.000
G1 X146.061 Y94.783 F7200.000
G1 Z0.200 F7200.000
G1 E0.80000 F2100.00000
G1 F1800
G1 X135.217 Y83.939 E0.48211
G1 F5760
G1 X136.769 Y85.490 E-0.76000
G1 E-0.04000 F2100.00000
G1 Z0.800 F7200.000
G1 X136.332 Y84.519 F7200.000
G1 Z0.200 F7200.000
G1 E0.80000 F2100.00000
G1 F1800
G1 X145.481 Y93.668 E0.40672
G1 F5760
G1 X143.929 Y92.116 E-0.76000
G1 E-0.04000 F2100.00000
G1 Z0.800 F7200.000
G1 X144.664 Y92.316 F7200.000
G1 Z0.200 F7200.000
G1 E0.80000 F2100.00000
G1 F1800
G1 X137.684 Y85.336 E0.31030
G1 F5760
G1 X139.236 Y86.888 E-0.76000
G1 E-0.04000 F2100.00000
G1 Z0.800 F7200.000
G1 X139.562 Y86.680 F7200.000
G1 Z0.200 F7200.000
G1 E0.80000 F2100.00000
G1 F1800
G1 X143.320 Y90.438 E0.16707
G1 F5760
G1 X141.769 Y88.886 E-0.76000
G1 E-0.04000 F2100.00000
G1 Z0.800 F7200.000
G1 X113.668 Y125.481 F7200.000
G1 Z0.200 F7200.000
G1 E0.80000 F2100.00000
G1 F1800
G1 X104.519 Y116.332 E0.40673
G1 F5760
G1 X106.071 Y117.884 E-0.76000
G1 E-0.04000 F2100.00000
G1 Z0.800 F7200.000
G1 X105.336 Y117.684 F7200.000
G1 Z0.200 F7200.000
G1 E0.80000 F2100.00000
G1 F1800
G1 X112.316 Y124.664 E0.31030
G1 F5760
G1 X110.764 Y123.112 E-0.76000
G1 E-0.04000 F2100.00000
G1 Z0.800 F7200.000
G1 X110.438 Y123.320 F7200.000
G1 Z0.200 F7200.000
G1 E0.80000 F2100.00000
G1 F1800
G1 X106.680 Y119.562 E0.16708
M106 S216.75
;BEFORE_LAYER_CHANGE
;0.3


G1 F5760
G1 X108.231 Y121.114 E-0.76000
G1 E-0.04000 F2100.00000
G1 Z0.800 F7200.000
;AFTER_LAYER_CHANGE
;0.3
M104 S210 ; set temperature
G1 X103.941 Y121.663 F7200.000
G1 Z0.300 F7200.000
G1 E0.80000 F2100.00000
G1 F3000
G1 X102.980 Y120.411 E0.02616
G1 X101.720 Y118.433 E0.03885
G1 X100.599 Y116.264 E0.04045
G1 X99.744 Y114.193 E0.03712
G1 X99.068 Y112.056 E0.03715
G1 X98.551 Y109.765 E0.03891
G1 X98.226 Y107.347 E0.04043
G1 X98.123 Y105.001 E0.03891
G1 X98.225 Y102.658 E0.03885
G1 X98.532 Y100.330 E0.03891
G1 X99.040 Y98.037 E0.03891
G1 X99.781 Y95.711 E0.04045
G1 X100.641 Y93.642 E0.03712
G1 X101.674 Y91.652 E0.03715
G1 X102.928 Y89.667 E0.03891
G1 X104.408 Y87.727 E0.04043
G1 X105.994 Y85.996 E0.03891
G1 X107.729 Y84.407 E0.03898
G1 X109.665 Y82.929 E0.04036
G1 X111.652 Y81.674 E0.03894
G1 X113.640 Y80.641 E0.03712
G1 X115.711 Y79.781 E0.03715
G1 X118.039 Y79.040 E0.04049
G1 X120.328 Y78.532 E0.03885
G1 X122.657 Y78.225 E0.03891
G1 X125.003 Y78.123 E0.03891
G1 X127.349 Y78.226 E0.03891
G1 X129.763 Y78.550 E0.04036
G1 X132.056 Y79.068 E0.03894
G1 X134.192 Y79.744 E0.03712
G1 X136.264 Y80.599 E0.03715
G1 X138.431 Y81.720 E0.04042
G1 X140.412 Y82.981 E0.03891
G1 X142.276 Y84.410 E0.03891
G1 X144.004 Y85.994 E0.03885
G1 X145.588 Y87.723 E0.03885
G1 X147.018 Y89.586 E0.03891
G1 X148.280 Y91.567 E0.03891
G1 X149.401 Y93.736 E0.04045
G1 X150.256 Y95.807 E0.03712
G1 X150.932 Y97.944 E0.03715
G1 X151.449 Y100.235 E0.03891
G1 X151.774 Y102.653 E0.04043
G1 X151.877 Y104.999 E0.03891
G1 X151.775 Y107.342 E0.03885
G1 X151.468 Y109.670 E0.03891
G1 X150.960 Y111.963 E0.03891
G1 X150.219 Y114.289 E0.04045
G1 X149.359 Y116.358 E0.03712
G1 X148.326 Y118.348 E0.03715
G1 X147.072 Y120.333 E0.03891
G1 X145.592 Y122.273 E0.04042
G1 X144.006 Y124.004 E0.03891
G1 X142.277 Y125.588 E0.03885
G1 X140.411 Y127.020 E0.03898
G1 X138.433 Y128.280 E0.03885
G1 X136.264 Y129.401 E0.04045
G1 X134.193 Y130.256 E0.03712
G1 X132.056 Y130.932 E0.03715
G1 X129.765 Y131.449 E0.03891
G1 X127.347 Y131.774 E0.04042
G1 X125.001 Y131.877 E0.03891
G1 X122.658 Y131.775 E0.03885
G1 X120.330 Y131.468 E0.03891
G1 X118.037 Y130.960 E0.03891
G1 X115.711 Y130.219 E0.04045
G1 X113.642 Y129.359 E0.03712
G1 X111.652 Y128.326 E0.03715
G1 X109.667 Y127.072 E0.03891
G1 X107.727 Y125.592 E0.04042
G1 X105.996 Y124.006 E0.03891
G1 X104.412 Y122.277 E0.03885
G1 X103.977 Y121.711 E0.01182
G1 F5760
G1 X102.980 Y120.411 E-0.56765
G1 F5760
G1 X102.681 Y119.942 E-0.19235
G1 E-0.04000 F2100.00000
G1 Z0.900 F7200.000
G1 X106.720 Y119.607 F7200.000
G1 Z0.300 F7200.000
G1 E0.80000 F2100.00000
M204 S800
G1 F3000
G1 X105.818 Y118.431 E0.02639
G1 X104.720 Y116.708 E0.03640
G1 X103.777 Y114.896 E0.03640
G1 X102.995 Y113.009 E0.03640
G1 X102.381 Y111.061 E0.03640
G1 X101.939 Y109.066 E0.03640
G1 X101.672 Y107.041 E0.03640
G1 X101.583 Y105.000 E0.03640
G1 X101.672 Y102.959 E0.03640
G1 X101.939 Y100.934 E0.03640
G1 X102.381 Y98.939 E0.03640
G1 X102.995 Y96.991 E0.03640
G1 X103.777 Y95.104 E0.03640
G1 X104.720 Y93.292 E0.03640
G1 X105.818 Y91.569 E0.03640
G1 X107.062 Y89.948 E0.03640
G1 X108.442 Y88.442 E0.03640
G1 X109.948 Y87.062 E0.03640
G1 X111.569 Y85.818 E0.03640
G1 X113.292 Y84.720 E0.03640
G1 X115.104 Y83.777 E0.03640
G1 X116.991 Y82.995 E0.03640
G1 X118.939 Y82.381 E0.03640
G1 X120.934 Y81.939 E0.03640
G1 X122.959 Y81.672 E0.03640
G1 X125.000 Y81.583 E0.03640
G1 X127.041 Y81.672 E0.03640
G1 X129.066 Y81.939 E0.03640
G1 X131.061 Y82.381 E0.03640
G1 X133.009 Y82.995 E0.03640
G1 X134.896 Y83.777 E0.03640
G1 X136.708 Y84.720 E0.03640
G1 X138.431 Y85.818 E0.03640
G1 X140.052 Y87.062 E0.03640
G1 X141.558 Y88.442 E0.03640
G1 X142.938 Y89.948 E0.03640
G1 X144.182 Y91.569 E0.03640
G1 X145.280 Y93.292 E0.03640
G1 X146.223 Y95.104 E0.03640
G1 X147.005 Y96.991 E0.03640
G1 X147.619 Y98.939 E0.03640
G1 X148.061 Y100.934 E0.03640
G1 X148.328 Y102.959 E0.03640
G1 X148.417 Y105.000 E0.03640
G1 X148.328 Y107.041 E0.03640
G1 X148.061 Y109.066 E0.03640
G1 X147.619 Y111.061 E0.03640
G1 X147.005 Y113.009 E0.03640
G1 X146.223 Y114.896 E0.03640
G1 X145.280 Y116.708 E0.03640
G1 X144.182 Y118.431 E0.03640
G1 X143.126 Y119.807 E0.03089
G1 X142.938 Y120.052 E0.00550
G1 X141.558 Y121.558 E0.03640
G1 X140.052 Y122.938 E0.03640
G1 X138.431 Y124.182 E0.03640
G1 X136.708 Y125.280 E0.03640
G1 X134.896 Y126.223 E0.03640
G1 X133.009 Y127.005 E0.03640
G1 X131.061 Y127.619 E0.03640
G1 X129.066 Y128.061 E0.03640
G1 X127.041 Y128.328 E0.03640
G1 X125.000 Y128.417 E0.03640
G1 X122.959 Y128.328 E0.03640
G1 X120.934 Y128.061 E0.03640
G1 X118.939 Y127.619 E0.03640
G1 X116.991 Y127.005 E0.03640
G1 X115.104 Y126.223 E0.03640
G1 X113.292 Y125.280 E0.03640
G1 X111.569 Y124.182 E0.03640
G1 X109.948 Y122.938 E0.03640
G1 X108.442 Y121.558 E0.03640
G1 X107.062 Y120.052 E0.03640
G1 X106.756 Y119.654 E0.00894
M204 S1000
G1 X106.416 Y119.915 F7200.000
M204 S800
G1 F3000
G1 X105.467 Y118.677 E0.02779
G1 X104.349 Y116.923 E0.03706
G1 X103.388 Y115.078 E0.03706
G1 X102.592 Y113.156 E0.03706
G1 X101.967 Y111.172 E0.03706
G1 X101.516 Y109.141 E0.03706
G1 X101.245 Y107.078 E0.03706
G1 X101.154 Y105.000 E0.03706
G1 X101.245 Y102.922 E0.03706
G1 X101.516 Y100.859 E0.03706
G1 X101.967 Y98.828 E0.03706
G1 X102.592 Y96.844 E0.03706
G1 X103.388 Y94.922 E0.03706
G1 X104.349 Y93.077 E0.03706
G1 X105.467 Y91.323 E0.03706
G1 X106.733 Y89.672 E0.03706
G1 X108.138 Y88.138 E0.03706
G1 X109.672 Y86.733 E0.03706
G1 X111.323 Y85.467 E0.03706
G1 X113.077 Y84.349 E0.03706
G1 X114.922 Y83.388 E0.03706
G1 X116.844 Y82.592 E0.03706
G1 X118.828 Y81.967 E0.03706
G1 X120.859 Y81.516 E0.03706
G1 X122.922 Y81.245 E0.03706
G1 X125.000 Y81.154 E0.03706
G1 X127.078 Y81.245 E0.03706
G1 X129.141 Y81.516 E0.03706
G1 X131.172 Y81.967 E0.03706
G1 X133.156 Y82.592 E0.03706
G1 X135.078 Y83.388 E0.03706
G1 X136.923 Y84.349 E0.03706
G1 X138.677 Y85.467 E0.03706
G1 X140.068 Y86.534 E0.03123
G1 X140.328 Y86.733 E0.00584
G1 X141.862 Y88.138 E0.03706
G1 X143.267 Y89.672 E0.03706
G1 X144.533 Y91.323 E0.03706
G1 X145.651 Y93.077 E0.03706
G1 X146.612 Y94.922 E0.03706
G1 X147.408 Y96.844 E0.03706
G1 X148.033 Y98.828 E0.03706
G1 X148.484 Y100.859 E0.03706
G1 X148.755 Y102.922 E0.03706
G1 X148.846 Y105.000 E0.03706
G1 X148.755 Y107.078 E0.03706
G1 X148.484 Y109.141 E0.03706
G1 X148.033 Y111.172 E0.03706
G1 X147.408 Y113.156 E0.03706
G1 X146.612 Y115.078 E0.03706
G1 X145.651 Y116.923 E0.03706
G1 X144.533 Y118.677 E0.03706
G1 X143.466 Y120.068 E0.03123
G1 X143.267 Y120.328 E0.00584
G1 X141.862 Y121.862 E0.03706
G1 X140.328 Y123.267 E0.03706
G1 X138.677 Y124.533 E0.03706
G1 X136.923 Y125.651 E0.03706
G1 X135.078 Y126.612 E0.03706
G1 X133.156 Y127.408 E0.03706
G1 X131.172 Y128.033 E0.03706
G1 X129.141 Y128.484 E0.03706
G1 X127.078 Y128.755 E0.03706
G1 X125.000 Y128.846 E0.03706
G1 X122.922 Y128.755 E0.03706
G1 X120.859 Y128.484 E0.03706
G1 X118.828 Y128.033 E0.03706
G1 X116.844 Y127.408 E0.03706
G1 X114.922 Y126.612 E0.03706
G1 X113.077 Y125.651 E0.03706
G1 X111.323 Y124.533 E0.03706
G1 X109.672 Y123.267 E0.03706
G1 X108.138 Y121.862 E0.03706
G1 X106.733 Y120.328 E0.03706
G1 X106.453 Y119.963 E0.00820
M204 S1000
G1 X106.113 Y120.224 F7200.000
M204 S800
G1 F2400
G1 X105.115 Y118.923 E0.02920
G1 X103.977 Y117.137 E0.03773
G1 X103.000 Y115.259 E0.03773
G1 X102.189 Y113.302 E0.03773
G1 X101.552 Y111.283 E0.03773
G1 X101.094 Y109.215 E0.03773
G1 X100.818 Y107.116 E0.03773
G1 X100.725 Y105.000 E0.03773
G1 X100.818 Y102.884 E0.03773
G1 X101.094 Y100.785 E0.03773
G1 X101.552 Y98.717 E0.03773
G1 X102.189 Y96.698 E0.03773
G1 X103.000 Y94.741 E0.03773
G1 X103.977 Y92.863 E0.03773
G1 X105.115 Y91.077 E0.03773
G1 X106.404 Y89.396 E0.03773
G1 X107.835 Y87.835 E0.03773
G1 X109.396 Y86.404 E0.03773
G1 X111.077 Y85.115 E0.03773
G1 X112.863 Y83.977 E0.03773
G1 X114.741 Y83.000 E0.03773
G1 X116.698 Y82.189 E0.03773
G1 X118.717 Y81.552 E0.03773
G1 X120.785 Y81.094 E0.03773
G1 X122.884 Y80.818 E0.03773
G1 X125.000 Y80.725 E0.03773
G1 X127.116 Y80.818 E0.03773
G1 X129.215 Y81.094 E0.03773
G1 X131.283 Y81.552 E0.03773
G1 X133.302 Y82.189 E0.03773
G1 X135.259 Y83.000 E0.03773
G1 X137.137 Y83.977 E0.03773
G1 X138.923 Y85.115 E0.03773
G1 X140.329 Y86.194 E0.03156
G1 X140.604 Y86.404 E0.00617
G1 X142.165 Y87.835 E0.03773
G1 X143.596 Y89.396 E0.03773
G1 X144.885 Y91.077 E0.03773
G1 X146.023 Y92.863 E0.03773
G1 X147.000 Y94.741 E0.03773
G1 X147.811 Y96.698 E0.03773
G1 X148.448 Y98.717 E0.03773
G1 X148.906 Y100.785 E0.03773
G1 X149.182 Y102.884 E0.03773
G1 X149.275 Y105.000 E0.03773
G1 X149.182 Y107.116 E0.03773
G1 X148.906 Y109.215 E0.03773
G1 X148.448 Y111.283 E0.03773
G1 X147.811 Y113.302 E0.03773
G1 X147.000 Y115.259 E0.03773
G1 X146.023 Y117.137 E0.03773
G1 X144.885 Y118.923 E0.03773
G1 X143.596 Y120.604 E0.03773
G1 X142.165 Y122.165 E0.03773
G1 X140.604 Y123.596 E0.03773
G1 X138.923 Y124.885 E0.03773
G1 X137.137 Y126.023 E0.03773
G1 X135.259 Y127.000 E0.03773
G1 X133.302 Y127.811 E0.03773
G1 X131.283 Y128.448 E0.03773
G1 X129.215 Y128.906 E0.03773
G1 X127.116 Y129.182 E0.03773
G1 X125.000 Y129.275 E0.03773
G1 X122.884 Y129.182 E0.03773
G1 X120.785 Y128.906 E0.03773
G1 X118.717 Y128.448 E0.03773
G1 X116.698 Y127.811 E0.03773
G1 X114.741 Y127.000 E0.03773
G1 X112.863 Y126.023 E0.03773
G1 X111.077 Y124.885 E0.03773
G1 X109.396 Y123.596 E0.03773
G1 X107.835 Y122.165 E0.03773
G1 X106.404 Y120.604 E0.03773
G1 X106.149 Y120.271 E0.00747
M204 S1000
G1 X106.257 Y119.850 F7200.000
G1 F5760
G1 X105.115 Y118.923 E-0.58835
G1 F5760
G1 X104.849 Y118.505 E-0.17165
G1 E-0.04000 F2100.00000
G1 Z0.900 F7200.000
G1 X103.809 Y95.363 F7200.000
G1 Z0.300 F7200.000
G1 E0.80000 F2100.00000
M204 S2000
G1 F2400
G1 X114.955 Y84.217 E0.28289
G1 X115.240 Y84.069 E0.00576
G1 X116.049 Y83.733 E0.01572
G1 X103.733 Y96.049 E0.31256
G1 X103.302 Y97.091 E0.02024
G1 X117.091 Y83.302 E0.34997
G1 X117.984 Y83.019 E0.01681
G1 X103.019 Y97.984 E0.37980
G1 X102.738 Y98.876 E0.01678
G1 X118.876 Y82.738 E0.40957
G1 X119.678 Y82.547 E0.01480
G1 X102.547 Y99.678 E0.43478
G1 X102.373 Y100.462 E0.01442
G1 X120.462 Y82.373 E0.45910
G1 X120.990 Y82.256 E0.00970
G1 X121.220 Y82.225 E0.00416
G1 X102.225 Y101.220 E0.48207
G1 X102.133 Y101.923 E0.01273
G1 X121.923 Y82.133 E0.50226
G1 X122.626 Y82.040 E0.01273
G1 X102.040 Y102.626 E0.52246
G1 X101.993 Y102.987 E0.00654
G1 X101.979 Y103.297 E0.00557
G1 X123.297 Y81.979 E0.54105
G1 X123.936 Y81.951 E0.01147
G1 X101.951 Y103.936 E0.55796
G1 X101.923 Y104.574 E0.01147
G1 X124.574 Y81.923 E0.57487
G1 X125.194 Y81.913 E0.01114
G1 X101.913 Y105.194 E0.59088
G1 X101.939 Y105.779 E0.01051
G1 X125.779 Y81.939 E0.60507
G1 X126.364 Y81.964 E0.01051
G1 X101.964 Y106.364 E0.61927
G1 X101.990 Y106.949 E0.01051
G1 X126.949 Y81.990 E0.63347
G1 X127.494 Y82.056 E0.00984
G1 X102.056 Y107.494 E0.64561
G1 X102.127 Y108.033 E0.00976
G1 X128.033 Y82.127 E0.65749
G1 X128.573 Y82.198 E0.00976
G1 X102.198 Y108.572 E0.66938
G1 X102.277 Y109.104 E0.00965
G1 X129.104 Y82.277 E0.68089
G1 X129.604 Y82.387 E0.00919
G1 X102.387 Y109.604 E0.69076
G1 X102.498 Y110.104 E0.00919
G1 X130.104 Y82.498 E0.70063
G1 X130.604 Y82.609 E0.00919
G1 X102.609 Y110.604 E0.71050
G1 X102.729 Y111.094 E0.00907
G1 X131.094 Y82.729 E0.71992
G1 X131.558 Y82.875 E0.00873
G1 X102.875 Y111.558 E0.72799
G1 X103.021 Y112.022 E0.00873
G1 X132.022 Y83.021 E0.73605
G1 X132.487 Y83.168 E0.00873
G1 X103.168 Y112.487 E0.74412
G1 X103.318 Y112.947 E0.00869
G1 X132.947 Y83.318 E0.75200
G1 X133.379 Y83.496 E0.00838
G1 X103.496 Y113.379 E0.75842
G1 X103.675 Y113.810 E0.00838
G1 X133.810 Y83.675 E0.76483
G1 X134.242 Y83.854 E0.00838
G1 X103.854 Y114.242 E0.77125
G1 X104.033 Y114.674 E0.00838
G1 X134.674 Y84.033 E0.77767
G1 X135.081 Y84.236 E0.00817
G1 X104.236 Y115.081 E0.78286
G1 X104.445 Y115.483 E0.00812
G1 X135.483 Y84.445 E0.78775
G1 X135.884 Y84.654 E0.00812
G1 X104.654 Y115.884 E0.79263
G1 X104.863 Y116.286 E0.00812
G1 X136.286 Y84.863 E0.79752
G1 X136.677 Y85.082 E0.00805
G1 X105.082 Y116.677 E0.80190
G1 X105.319 Y117.050 E0.00793
G1 X137.050 Y85.319 E0.80533
G1 X137.423 Y85.557 E0.00793
G1 X105.557 Y117.423 E0.80877
G1 X105.794 Y117.796 E0.00793
G1 X137.796 Y85.794 E0.81220
G1 X138.169 Y86.032 E0.00793
G1 X106.032 Y118.169 E0.81564
G1 X106.291 Y118.520 E0.00783
G1 X138.520 Y86.291 E0.81797
G1 X138.865 Y86.556 E0.00781
G1 X106.556 Y118.865 E0.82001
G1 X106.821 Y119.211 E0.00781
G1 X139.211 Y86.821 E0.82205
G1 X139.556 Y87.086 E0.00781
G1 X107.086 Y119.556 E0.82409
G1 X107.356 Y119.897 E0.00780
G1 X139.897 Y87.356 E0.82590
G1 X140.216 Y87.648 E0.00775
G1 X107.648 Y120.216 E0.82658
G1 X107.939 Y120.534 E0.00775
G1 X140.534 Y87.939 E0.82726
G1 X140.853 Y88.231 E0.00775
G1 X108.231 Y120.853 E0.82793
G1 X108.523 Y121.171 E0.00775
G1 X141.171 Y88.523 E0.82861
G1 X141.331 Y88.669 E0.00388
G1 X141.477 Y88.828 E0.00388
G1 X108.828 Y121.477 E0.82861
G1 X109.147 Y121.769 E0.00775
G1 X141.769 Y89.147 E0.82793
G1 X142.061 Y89.466 E0.00775
G1 X109.466 Y122.061 E0.82726
G1 X109.784 Y122.352 E0.00775
G1 X142.352 Y89.784 E0.82658
G1 X142.644 Y90.103 E0.00775
G1 X110.103 Y122.644 E0.82590
G1 X110.444 Y122.914 E0.00780
G1 X142.914 Y90.444 E0.82409
G1 X143.179 Y90.789 E0.00781
G1 X110.789 Y123.179 E0.82205
G1 X111.135 Y123.444 E0.00781
G1 X143.444 Y91.135 E0.82001
G1 X143.709 Y91.480 E0.00781
G1 X111.480 Y123.709 E0.81797
G1 X111.831 Y123.968 E0.00783
G1 X143.968 Y91.831 E0.81564
G1 X144.206 Y92.204 E0.00793
G1 X112.204 Y124.206 E0.81220
G1 X112.577 Y124.443 E0.00793
G1 X144.443 Y92.577 E0.80877
G1 X144.681 Y92.950 E0.00793
G1 X112.950 Y124.681 E0.80533
G1 X113.323 Y124.918 E0.00793
G1 X144.918 Y93.323 E0.80190
G1 X145.137 Y93.714 E0.00805
G1 X113.714 Y125.137 E0.79752
G1 X114.116 Y125.346 E0.00812
G1 X145.346 Y94.116 E0.79263
G1 X145.555 Y94.517 E0.00812
G1 X114.517 Y125.555 E0.78775
G1 X114.919 Y125.764 E0.00812
G1 X145.764 Y94.919 E0.78286
G1 X145.967 Y95.326 E0.00817
G1 X115.326 Y125.967 E0.77767
G1 X115.758 Y126.146 E0.00838
G1 X146.146 Y95.758 E0.77125
G1 X146.325 Y96.190 E0.00838
G1 X116.190 Y126.325 E0.76483
G1 X116.621 Y126.504 E0.00838
G1 X146.504 Y96.621 E0.75842
G1 X146.682 Y97.053 E0.00838
G1 X117.053 Y126.682 E0.75200
G1 X117.513 Y126.832 E0.00869
G1 X146.832 Y97.513 E0.74412
G1 X146.979 Y97.977 E0.00873
G1 X117.977 Y126.979 E0.73605
G1 X118.442 Y127.125 E0.00873
G1 X147.125 Y98.442 E0.72799
G1 X147.271 Y98.906 E0.00873
G1 X118.906 Y127.271 E0.71992
G1 X119.396 Y127.391 E0.00907
G1 X147.391 Y99.396 E0.71050
G1 X147.502 Y99.896 E0.00919
G1 X119.896 Y127.502 E0.70063
G1 X120.396 Y127.613 E0.00919
G1 X147.613 Y100.396 E0.69076
G1 X147.723 Y100.896 E0.00919
G1 X120.896 Y127.723 E0.68089
G1 X121.427 Y127.802 E0.00965
G1 X147.802 Y101.427 E0.66938
G1 X147.873 Y101.967 E0.00976
G1 X121.967 Y127.873 E0.65750
G1 X122.506 Y127.944 E0.00976
G1 X147.944 Y102.506 E0.64561
G1 X148.010 Y103.051 E0.00984
G1 X123.051 Y128.010 E0.63347
G1 X123.636 Y128.036 E0.01051
G1 X148.036 Y103.636 E0.61927
G1 X148.061 Y104.221 E0.01051
G1 X124.221 Y128.061 E0.60507
G1 X124.805 Y128.087 E0.01051
G1 X148.087 Y104.806 E0.59088
G1 X148.077 Y105.426 E0.01114
G1 X125.426 Y128.077 E0.57487
G1 X126.064 Y128.049 E0.01147
G1 X148.049 Y106.064 E0.55796
G1 X148.021 Y106.703 E0.01147
G1 X126.703 Y128.021 E0.54105
G1 X127.013 Y128.007 E0.00557
G1 X127.374 Y127.960 E0.00654
G1 X147.960 Y107.374 E0.52246
G1 X147.867 Y108.077 E0.01273
G1 X128.077 Y127.867 E0.50227
G1 X128.780 Y127.775 E0.01273
G1 X147.775 Y108.780 E0.48207
G1 X147.744 Y109.010 E0.00417
G1 X147.627 Y109.538 E0.00970
G1 X129.538 Y127.627 E0.45911
G1 X130.322 Y127.453 E0.01442
G1 X147.453 Y110.322 E0.43479
G1 X147.262 Y111.124 E0.01480
G1 X131.124 Y127.262 E0.40957
G1 X132.016 Y126.981 E0.01678
G1 X146.981 Y112.016 E0.37981
G1 X146.698 Y112.909 E0.01681
G1 X132.909 Y126.698 E0.34997
G1 X133.951 Y126.267 E0.02024
G1 X146.267 Y113.951 E0.31257
G1 X145.931 Y114.760 E0.01572
G1 X145.783 Y115.045 E0.00575
G1 X134.637 Y126.191 E0.28289
M204 S1000
G1 F5760
G1 X136.189 Y124.640 E-0.76000
G1 E-0.04000 F2100.00000
G1 Z0.900 F7200.000
G1 X135.865 Y125.574 F7200.000
G1 Z0.300 F7200.000
G1 E0.80000 F2100.00000
M204 S2000
G1 F2400
G1 X145.574 Y115.865 E0.24642
M204 S1000
G1 F5760
G1 X144.022 Y117.416 E-0.76000
G1 E-0.04000 F2100.00000
G1 Z0.900 F7200.000
G1 X144.753 Y117.297 F7200.000
G1 Z0.300 F7200.000
G1 E0.80000 F2100.00000
M204 S2000
G1 F2400
G1 X137.297 Y124.753 E0.18923
M204 S1000
G1 F5760
G1 X138.848 Y123.201 E-0.76000
G1 E-0.04000 F2100.00000
G1 Z0.900 F7200.000
G1 X139.326 Y123.333 F7200.000
G1 Z0.300 F7200.000
G1 E0.80000 F2100.00000
M204 S2000
G1 F2400
G1 X143.333 Y119.326 E0.10170
M204 S1000
G1 F5760
G1 X141.782 Y120.878 E-0.76000
G1 E-0.04000 F2100.00000
G1 Z0.900 F7200.000
G1 X114.135 Y84.426 F7200.000
G1 Z0.300 F7200.000
G1 E0.80000 F2100.00000
M204 S2000
G1 F2400
G1 X104.426 Y94.135 E0.24642
M204 S1000
G1 F5760
G1 X105.978 Y92.584 E-0.76000
G1 E-0.04000 F2100.00000
G1 Z0.900 F7200.000
G1 X105.248 Y92.703 F7200.000
G1 Z0.300 F7200.000
G1 E0.80000 F2100.00000
M204 S2000
G1 F2400
G1 X112.703 Y85.248 E0.18923
M204 S1000
G1 F5760
G1 X111.152 Y86.799 E-0.76000
G1 E-0.04000 F2100.00000
G1 Z0.900 F7200.000
G1 X110.674 Y86.667 F7200.000
G1 Z0.300 F7200.000
G1 E0.80000 F2100.00000
M204 S2000
G1 F2400
G1 X106.667 Y90.674 E0.10169
M204 S1000
G1 F5760;_WIPE
G1 X108.218 Y89.122 E-0.76000
G1 E-0.04000 F2100.00000
G1 Z0.900 F7200.000
M107
; Filament-specific end gcode
G4 ; wait
M104 S0 ; turn off temperature
M140 S0 ; turn off heatbed
M107 ; turn off fan
G1 X0 Y200; home X axis
M84 ; disable motors
; filament used = 244.4mm (0.6cm3)
; total filament cost = 0.0

; avoid_crossing_perimeters = 0
; bed_shape = 0x0,250x0,250x210,0x210
; bed_temperature = 60
; before_layer_gcode = ;BEFORE_LAYER_CHANGE\n;[layer_z]\n\n
; between_objects_gcode = 
; bridge_acceleration = 1000
; bridge_fan_speed = 100
; brim_width = 0
; complete_objects = 0
; cooling = 1
; default_acceleration = 1000
; deretract_speed = 0
; disable_fan_first_layers = 1
; duplicate_distance = 6
; end_filament_gcode = "; Filament-specific end gcode"
; end_gcode = G4 ; wait\nM104 S0 ; turn off temperature\nM140 S0 ; turn off heatbed\nM107 ; turn off fan\nG1 X0 Y200; home X axis\nM84 ; disable motors
; extruder_clearance_height = 20
; extruder_clearance_radius = 20
; extruder_colour = #FFFF00
; extruder_offset = 0x0
; extrusion_axis = E
; extrusion_multiplier = 1
; fan_always_on = 1
; fan_below_layer_time = 100
; filament_colour = #FF3232
; filament_cost = 0
; filament_density = 0
; filament_diameter = 1.75
; filament_max_volumetric_speed = 15
; filament_notes = "List of materials tested with standart PLA print settings for MK2:\n\nDas Filament\nEsun PLA\nEUMAKERS PLA\nFiberlogy HD-PLA\nFillamentum PLA\nFloreon3D\nHatchbox PLA\nPlasty Mladeč PLA\nPrimavalue PLA\nProto pasta Matte Fiber\nVerbatim PLA\nVerbatim BVOH"
; filament_soluble = 0
; filament_type = PLA
; first_layer_acceleration = 1000
; first_layer_bed_temperature = 60
; first_layer_extrusion_width = 0.42
; first_layer_speed = 30
; first_layer_temperature = 215
; gcode_comments = 0
; gcode_flavor = reprap
; infill_acceleration = 2000
; infill_first = 0
; layer_gcode = ;AFTER_LAYER_CHANGE\n;[layer_z]
; max_fan_speed = 100
; max_layer_height = 0.25
; max_print_speed = 100
; max_volumetric_extrusion_rate_slope_negative = 0
; max_volumetric_extrusion_rate_slope_positive = 0
; max_volumetric_speed = 0
; min_fan_speed = 85
; min_layer_height = 0.07
; min_print_speed = 15
; min_skirt_length = 4
; notes = 
; nozzle_diameter = 0.4
; only_retract_when_crossing_perimeters = 0
; ooze_prevention = 0
; output_filename_format = [input_filename_base].gcode
; perimeter_acceleration = 800
; post_process = 
; printer_notes = Don't remove the following keywords! These keywords are used in the "compatible printer" condition of the print and filament profiles to link the particular print and filament profiles to this printer profile.\nPRINTER_VENDOR_PRUSA3D\nPRINTER_MODEL_MK2\n
; resolution = 0
; retract_before_travel = 1
; retract_before_wipe = 0%
; retract_layer_change = 1
; retract_length = 0.8
; retract_length_toolchange = 3
; retract_lift = 0.6
; retract_lift_above = 0
; retract_lift_below = 199
; retract_restart_extra = 0
; retract_restart_extra_toolchange = 0
; retract_speed = 35
; single_extruder_multi_material = 0
; skirt_distance = 2
; skirt_height = 3
; skirts = 1
; slowdown_below_layer_time = 10
; spiral_vase = 0
; standby_temperature_delta = -5
; start_filament_gcode = "M900 K{if printer_notes=~/.*PRINTER_HAS_BOWDEN.*/}200{else}30{endif}; Filament gcode"
; start_gcode = M115 U3.1.0 ; tell printer latest fw version\nM83  ; extruder relative mode\nM104 S[first_layer_temperature] ; set extruder temp\nM140 S[first_layer_bed_temperature] ; set bed temp\nM190 S[first_layer_bed_temperature] ; wait for bed temp\nM109 S[first_layer_temperature] ; wait for extruder temp\nG28 W ; home all without mesh bed level\nG80 ; mesh bed leveling\nG1 Y-3.0 F1000.0 ; go outside print area\nG92 E0.0\nG1 X60.0 E9.0  F1000.0 ; intro line\nG1 X100.0 E12.5  F1000.0 ; intro line\nG92 E0.0
; temperature = 210
; threads = 4
; toolchange_gcode = 
; travel_speed = 120
; use_firmware_retraction = 0
; use_relative_e_distances = 1
; use_volumetric_e = 0
; variable_layer_height = 1
; wipe = 1
; wipe_tower = 0
; wipe_tower_per_color_wipe = 15
; wipe_tower_width = 60
; wipe_tower_x = 180
; wipe_tower_y = 140
; z_offset = 0
; clip_multipart_objects = 1
; dont_support_bridges = 1
; elefant_foot_compensation = 0
; extrusion_width = 0.45
; first_layer_height = 0.2
; infill_only_where_needed = 0
; interface_shells = 0
; layer_height = 0.1
; raft_layers = 0
; seam_position = nearest
; support_material = 0
; support_material_angle = 0
; support_material_buildplate_only = 0
; support_material_contact_distance = 0.15
; support_material_enforce_layers = 0
; support_material_extruder = 1
; support_material_extrusion_width = 0.35
; support_material_interface_contact_loops = 0
; support_material_interface_extruder = 1
; support_material_interface_layers = 2
; support_material_interface_spacing = 0.2
; support_material_interface_speed = 100%
; support_material_pattern = rectilinear
; support_material_spacing = 2
; support_material_speed = 50
; support_material_synchronize_layers = 0
; support_material_threshold = 45
; support_material_with_sheath = 0
; support_material_xy_spacing = 60%
; xy_size_compensation = 0
; bottom_solid_layers = 7
; bridge_angle = 0
; bridge_flow_ratio = 0.7
; bridge_speed = 20
; ensure_vertical_shell_thickness = 1
; external_fill_pattern = rectilinear
; external_perimeter_extrusion_width = 0.45
; external_perimeter_speed = 40
; external_perimeters_first = 0
; extra_perimeters = 0
; fill_angle = 45
; fill_density = 20%
; fill_pattern = cubic
; gap_fill_speed = 40
; infill_every_layers = 1
; infill_extruder = 1
; infill_extrusion_width = 0.45
; infill_overlap = 25%
; infill_speed = 60
; overhangs = 0
; perimeter_extruder = 1
; perimeter_extrusion_width = 0.45
; perimeter_speed = 50
; perimeters = 3
; small_perimeter_speed = 20
; solid_infill_below_area = 0
; solid_infill_every_layers = 0
; solid_infill_extruder = 1
; solid_infill_extrusion_width = 0.45
; solid_infill_speed = 50
; thin_walls = 0
; top_infill_extrusion_width = 0.45
; top_solid_infill_speed = 40
; top_solid_layers = 9
